{
	"smartphones_list": {
		"name": "smartphones_list",
		"type": "Product",
		"isList": false,
		"owner": "Page",
		"dataSet": {
			"dataValue": ""
		},
		"dataBinding": {
			"id": "",
			"img_url": "",
			"category": "Smartphones",
			"price": "",
			"description": "",
			"name": "",
			"availability": ""
		},
		"saveInPhonegap": false,
		"firstRow": 0,
		"maxResults": 3,
		"designMaxResults": 3,
		"operation": "read",
		"startUpdate": true,
		"autoUpdate": true,
		"inFlightBehavior": "executeLast",
		"transformationRequired": false,
		"onBeforeUpdate": "Javascript",
		"liveSource": "eshopping",
		"ignoreCase": false,
		"matchMode": "start",
		"filterFields": {},
		"category": "wm.LiveVariable",
		"_id": "wm-wm.LiveVariable1399288830232",
		"package": "com.eshopping.Product",
		"propertiesMap": {
			"columns": [
				{
					"fieldName": "id",
					"type": "integer",
					"fullyQualifiedType": "integer",
					"columnName": "ID",
					"isPrimaryKey": true,
					"notNull": true,
					"length": 255,
					"precision": 19,
					"generator": "identity",
					"isRelated": false
				},
				{
					"fieldName": "img_url",
					"type": "string",
					"fullyQualifiedType": "string",
					"columnName": "IMG_URL",
					"isPrimaryKey": false,
					"notNull": true,
					"length": 255,
					"precision": 19,
					"generator": null,
					"isRelated": false
				},
				{
					"fieldName": "category",
					"type": "string",
					"fullyQualifiedType": "string",
					"columnName": "CATEGORY",
					"isPrimaryKey": false,
					"notNull": true,
					"length": 255,
					"precision": 19,
					"generator": null,
					"isRelated": false
				},
				{
					"fieldName": "price",
					"type": "double",
					"fullyQualifiedType": "double",
					"columnName": "PRICE",
					"isPrimaryKey": false,
					"notNull": true,
					"length": 255,
					"precision": 64,
					"generator": null,
					"isRelated": false
				},
				{
					"fieldName": "description",
					"type": "string",
					"fullyQualifiedType": "string",
					"columnName": "DESCRIPTION",
					"isPrimaryKey": false,
					"notNull": true,
					"length": 255,
					"precision": 19,
					"generator": null,
					"isRelated": false
				},
				{
					"fieldName": "name",
					"type": "string",
					"fullyQualifiedType": "string",
					"columnName": "NAME",
					"isPrimaryKey": false,
					"notNull": true,
					"length": 255,
					"precision": 19,
					"generator": null,
					"isRelated": false
				},
				{
					"fieldName": "availability",
					"type": "boolean",
					"fullyQualifiedType": "boolean",
					"columnName": "AVAILABILITY",
					"isPrimaryKey": false,
					"notNull": true,
					"length": 255,
					"precision": 19,
					"generator": null,
					"isRelated": false
				}
			],
			"entityName": "Product",
			"fullyQualifiedName": "com.eshopping.Product"
		},
		"tableName": "PRODUCT"
	},
	"laptops_list": {
		"name": "laptops_list",
		"type": "Product",
		"isList": false,
		"owner": "Page",
		"dataSet": {
			"dataValue": ""
		},
		"dataBinding": {
			"id": "",
			"img_url": "",
			"category": "Laptops",
			"price": "",
			"description": "",
			"name": "",
			"availability": ""
		},
		"saveInPhonegap": false,
		"firstRow": 0,
		"maxResults": 3,
		"designMaxResults": 3,
		"operation": "read",
		"startUpdate": true,
		"autoUpdate": true,
		"inFlightBehavior": "executeLast",
		"transformationRequired": false,
		"onBeforeUpdate": "Javascript",
		"liveSource": "eshopping",
		"ignoreCase": false,
		"matchMode": "start",
		"filterFields": {},
		"category": "wm.LiveVariable",
		"_id": "wm-wm.LiveVariable1399288830265",
		"package": "com.eshopping.Product",
		"propertiesMap": {
			"columns": [
				{
					"fieldName": "id",
					"type": "integer",
					"fullyQualifiedType": "integer",
					"columnName": "ID",
					"isPrimaryKey": true,
					"notNull": true,
					"length": 255,
					"precision": 19,
					"generator": "identity",
					"isRelated": false
				},
				{
					"fieldName": "img_url",
					"type": "string",
					"fullyQualifiedType": "string",
					"columnName": "IMG_URL",
					"isPrimaryKey": false,
					"notNull": true,
					"length": 255,
					"precision": 19,
					"generator": null,
					"isRelated": false
				},
				{
					"fieldName": "category",
					"type": "string",
					"fullyQualifiedType": "string",
					"columnName": "CATEGORY",
					"isPrimaryKey": false,
					"notNull": true,
					"length": 255,
					"precision": 19,
					"generator": null,
					"isRelated": false
				},
				{
					"fieldName": "price",
					"type": "double",
					"fullyQualifiedType": "double",
					"columnName": "PRICE",
					"isPrimaryKey": false,
					"notNull": true,
					"length": 255,
					"precision": 64,
					"generator": null,
					"isRelated": false
				},
				{
					"fieldName": "description",
					"type": "string",
					"fullyQualifiedType": "string",
					"columnName": "DESCRIPTION",
					"isPrimaryKey": false,
					"notNull": true,
					"length": 255,
					"precision": 19,
					"generator": null,
					"isRelated": false
				},
				{
					"fieldName": "name",
					"type": "string",
					"fullyQualifiedType": "string",
					"columnName": "NAME",
					"isPrimaryKey": false,
					"notNull": true,
					"length": 255,
					"precision": 19,
					"generator": null,
					"isRelated": false
				},
				{
					"fieldName": "availability",
					"type": "boolean",
					"fullyQualifiedType": "boolean",
					"columnName": "AVAILABILITY",
					"isPrimaryKey": false,
					"notNull": true,
					"length": 255,
					"precision": 19,
					"generator": null,
					"isRelated": false
				}
			],
			"entityName": "Product",
			"fullyQualifiedName": "com.eshopping.Product"
		},
		"tableName": "PRODUCT"
	},
	"cameras_list": {
		"name": "cameras_list",
		"type": "Product",
		"isList": false,
		"owner": "Page",
		"dataSet": {
			"dataValue": ""
		},
		"dataBinding": {
			"id": "",
			"img_url": "",
			"category": "Cameras",
			"price": "",
			"description": "",
			"name": "",
			"availability": ""
		},
		"saveInPhonegap": false,
		"firstRow": 0,
		"maxResults": 3,
		"designMaxResults": 3,
		"operation": "read",
		"startUpdate": true,
		"autoUpdate": true,
		"inFlightBehavior": "executeLast",
		"transformationRequired": false,
		"onBeforeUpdate": "Javascript",
		"liveSource": "eshopping",
		"ignoreCase": false,
		"matchMode": "start",
		"filterFields": {},
		"category": "wm.LiveVariable",
		"_id": "wm-wm.LiveVariable1399288830294",
		"package": "com.eshopping.Product",
		"propertiesMap": {
			"columns": [
				{
					"fieldName": "id",
					"type": "integer",
					"fullyQualifiedType": "integer",
					"columnName": "ID",
					"isPrimaryKey": true,
					"notNull": true,
					"length": 255,
					"precision": 19,
					"generator": "identity",
					"isRelated": false
				},
				{
					"fieldName": "img_url",
					"type": "string",
					"fullyQualifiedType": "string",
					"columnName": "IMG_URL",
					"isPrimaryKey": false,
					"notNull": true,
					"length": 255,
					"precision": 19,
					"generator": null,
					"isRelated": false
				},
				{
					"fieldName": "category",
					"type": "string",
					"fullyQualifiedType": "string",
					"columnName": "CATEGORY",
					"isPrimaryKey": false,
					"notNull": true,
					"length": 255,
					"precision": 19,
					"generator": null,
					"isRelated": false
				},
				{
					"fieldName": "price",
					"type": "double",
					"fullyQualifiedType": "double",
					"columnName": "PRICE",
					"isPrimaryKey": false,
					"notNull": true,
					"length": 255,
					"precision": 64,
					"generator": null,
					"isRelated": false
				},
				{
					"fieldName": "description",
					"type": "string",
					"fullyQualifiedType": "string",
					"columnName": "DESCRIPTION",
					"isPrimaryKey": false,
					"notNull": true,
					"length": 255,
					"precision": 19,
					"generator": null,
					"isRelated": false
				},
				{
					"fieldName": "name",
					"type": "string",
					"fullyQualifiedType": "string",
					"columnName": "NAME",
					"isPrimaryKey": false,
					"notNull": true,
					"length": 255,
					"precision": 19,
					"generator": null,
					"isRelated": false
				},
				{
					"fieldName": "availability",
					"type": "boolean",
					"fullyQualifiedType": "boolean",
					"columnName": "AVAILABILITY",
					"isPrimaryKey": false,
					"notNull": true,
					"length": 255,
					"precision": 19,
					"generator": null,
					"isRelated": false
				}
			],
			"entityName": "Product",
			"fullyQualifiedName": "com.eshopping.Product"
		},
		"tableName": "PRODUCT"
	}
}